{
  "count": 26789,
  "next": "http://localhost/api/jobs/?page=3",
  "previous": "http: //localhost/api/jobs/?page=1",
  "results": [
    {
      "id": 1,
      "job_type": {
        "id": 1,
        "name": "landsat8-parse",
        "version": "1.0.0",
        "title": "Landsat 8 Parse",
        "description": "The Landsat 8 satellite images the entire Earth every 16 days in an 8-day offset from Landsat 7. Data collected by the instruments onboard the satellite are available to download at no charge from GloVis, EarthExplorer, or via the LandsatLook Viewer within 24 hours of reception. Landsat 8 carries two instruments: The Operational Land Imager (OLI) sensor includes refined heritage bands, along with three new bands: a deep blue band for coastal/aerosol studies, a shortwave infrared band for cirrus detection*, and a Quality Assessment band. The Thermal Infrared Sensor (TIRS) provides two thermal bands. These sensors both provide improved signal-to-noise (SNR) radiometric performance quantized over a 12-bit dynamic range. (This translates into 4096 potential grey levels in an image compared with only 256 grey levels in previous 8-bit instruments.) Improved signal to noise performance enable better characterization of land cover state and condition. Products are delivered as 16-bit images (scaled to 55,000 grey levels).",
        "is_system": false,
        "is_long_running": false,
        "is_active": true,
        "is_operational": true,
        "is_paused": false,
        "icon_code": "f248"
      },
      "event": {
        "id": 20,
        "type": "STRIKE_TRANSFER",
        "occurred": "2016-04-14T01:25:06Z"
      },
      "status": "QUEUED",
      "priority": 73,
      "num_exes": 93,
      "timeout": 2975,
      "max_tries": 8,
      "cpus_required": "54.0",
      "mem_required": "289.4",
      "disk_in_required": "54.8",
      "disk_out_required": "11.1",
      "created": "2016-04-02T18:54:46Z",
      "started": "2016-04-15T07:02:30Z",
      "last_status_change": "2016-04-26T19:08:33Z",
      "last_modified": "2016-04-12T22:20:00Z"
    },
    {
      "id": 2,
      "job_type": {
        "id": 2,
        "name": "sam",
        "title": "Spectral Angle Mapper",
        "version": "1.0",
        "description": "The algorithm determines the spectral similarity between two spectra by calculating the angle between the spectra.",
        "is_system": true,
        "is_long_running": true,
        "is_active": false,
        "is_operational": true,
        "is_paused": true,
        "icon_code": "f0e7"
      },
      "event": {
        "id": 4,
        "type": "STRIKE_TRANSFER",
        "occurred": "2015-07-13T06:24:26Z"
      },
      "status": "COMPLETED",
      "priority": 69,
      "num_exes": 6,
      "timeout": 2179,
      "max_tries": 7,
      "cpus_required": "32.3",
      "mem_required": "350.8",
      "disk_in_required": "44.7",
      "disk_out_required": "89.7",
      "created": "2016-01-08T12:50:20Z",
      "started": "2015-09-19T20:13:22Z",
      "last_status_change": "2016-03-14T11:08:03Z",
      "last_modified": "2016-02-09T11:09:19Z"
    },
    {
      "id": 3,
      "job_type": {
        "id": 3,
        "name": "scm",
        "title": "Spectral Correlation Mapper",
        "version": "1.0",
        "description": "An improvement on the Spectral Angle Mapper for evaluating spectra similarity.",
        "is_system": false,
        "is_long_running": false,
        "is_active": true,
        "is_operational": false,
        "is_paused": false,
        "icon_code": "f140"
      },
      "event": {
        "id": 24,
        "type": "STRIKE_TRANSFER",
        "occurred": "2016-04-04T22:42:58Z"
      },
      "status": "CANCELED",
      "priority": 62,
      "num_exes": 91,
      "timeout": 2961,
      "max_tries": 1,
      "cpus_required": "84.3",
      "mem_required": "133.1",
      "disk_in_required": "66.6",
      "disk_out_required": "7.1",
      "created": "2015-06-11T12:35:48Z",
      "started": "2015-05-23T07:05:06Z",
      "last_status_change": "2015-08-28T17:42:25Z",
      "last_modified": "2015-08-16T07:41:22Z"
    },
    {
      "id": 4,
      "job_type": {
        "id": 4,
        "name": "cem",
        "title": "Constrained Energy Minimization",
        "version": "1.0",
        "description": "CEM is used for target detection in hyperspectral remote sensing imagery.",
        "is_system": false,
        "is_long_running": true,
        "is_active": true,
        "is_operational": false,
        "is_paused": false,
        "icon_code": "f185"
      },
      "event": {
        "id": 32,
        "type": "STRIKE_TRANSFER",
        "occurred": "2015-11-02T17:11:02Z"
      },
      "status": "COMPLETED",
      "priority": 87,
      "num_exes": 26,
      "timeout": 1207,
      "max_tries": 7,
      "cpus_required": "30.5",
      "mem_required": "478.0",
      "disk_in_required": "4.7",
      "disk_out_required": "42.2",
      "created": "2015-11-21T18:23:08Z",
      "started": "2016-01-12T23:31:48Z",
      "last_status_change": "2015-09-15T06:38:47Z",
      "last_modified": "2016-01-24T09:34:35Z"
    },
    {
      "id": 5,
      "job_type": {
        "id": 5,
        "name": "wv2-parse",
        "title": "WorldView-2 Parse",
        "version": "1.0.1",
        "description": "Parses WorldView-2 GeoTiffs",
        "is_system": false,
        "is_long_running": false,
        "is_active": false,
        "is_operational": true,
        "is_paused": false,
        "icon_code": "f0c2"
      },
      "event": {
        "id": 24,
        "type": "STRIKE_TRANSFER",
        "occurred": "2015-12-03T17:00:39Z"
      },
      "status": "COMPLETED",
      "priority": 11,
      "num_exes": 2,
      "timeout": 1658,
      "max_tries": 8,
      "cpus_required": "2.1",
      "mem_required": "384.4",
      "disk_in_required": "26.3",
      "disk_out_required": "22.6",
      "created": "2015-04-28T17:33:42Z",
      "started": "2015-06-26T01:15:38Z",
      "last_status_change": "2015-05-16T03:57:22Z",
      "last_modified": "2016-03-08T20:38:26Z"
    },
    {
      "id": 6,
      "job_type": {
        "id": 6,
        "name": "wv2-atmosphere-corr",
        "title": "WorldView-2 Atmospheric Correction",
        "version": "1.0.1",
        "description": "Applies Atmospheric Correction to WorldView-2 GeoTiffs",
        "is_system": true,
        "is_long_running": true,
        "is_active": false,
        "is_operational": false,
        "is_paused": true,
        "icon_code": "f14e"
      },
      "event": {
        "id": 1,
        "type": "STRIKE_TRANSFER",
        "occurred": "2016-01-01T02:58:18Z"
      },
      "status": "COMPLETED",
      "priority": 61,
      "num_exes": 25,
      "timeout": 1174,
      "max_tries": 1,
      "cpus_required": "36.8",
      "mem_required": "266.5",
      "disk_in_required": "7.9",
      "disk_out_required": "51.8",
      "created": "2015-08-19T05:45:45Z",
      "started": "2015-08-15T19:52:25Z",
      "last_status_change": "2015-12-17T10:41:07Z",
      "last_modified": "2015-06-23T02:23:44Z"
    },
    {
      "id": 7,
      "job_type": {
        "id": 7,
        "name": "ls8-atmos-corr",
        "title": "Landsat 8 Atmospheric Correction",
        "version": "2.1.9",
        "description": "Applies Atmospheric Correction to Landsat 8 GeoTiffs",
        "is_system": true,
        "is_long_running": false,
        "is_active": false,
        "is_operational": false,
        "is_paused": true,
        "icon_code": "f00c"
      },
      "event": {
        "id": 86,
        "type": "STRIKE_TRANSFER",
        "occurred": "2015-08-19T01:32:45Z"
      },
      "status": "COMPLETED",
      "priority": 7,
      "num_exes": 27,
      "timeout": 2906,
      "max_tries": 8,
      "cpus_required": "92.2",
      "mem_required": "112.7",
      "disk_in_required": "17.2",
      "disk_out_required": "32.8",
      "created": "2015-08-16T06:24:43Z",
      "started": "2015-06-03T05:46:42Z",
      "last_status_change": "2015-08-12T10:35:15Z",
      "last_modified": "2015-04-29T18:23:02Z"
    },
    {
      "id": 8,
      "job_type": {
        "id": 8,
        "name": "ls8-ortho",
        "title": "Landsat 8 Ortho",
        "version": "2.1.9",
        "description": "Applies Orthorectification to Landsat 8 data",
        "is_system": false,
        "is_long_running": true,
        "is_active": true,
        "is_operational": false,
        "is_paused": false,
        "icon_code": "f1c0"
      },
      "event": {
        "id": 56,
        "type": "STRIKE_TRANSFER",
        "occurred": "2015-09-01T21:55:07Z"
      },
      "status": "COMPLETED",
      "priority": 2,
      "num_exes": 17,
      "timeout": 2457,
      "max_tries": 10,
      "cpus_required": "86.4",
      "mem_required": "469.2",
      "disk_in_required": "82.5",
      "disk_out_required": "58.6",
      "created": "2016-02-09T03:30:31Z",
      "started": "2016-01-05T05:59:28Z",
      "last_status_change": "2015-11-14T10:57:01Z",
      "last_modified": "2015-11-01T16:54:31Z"
    },
    {
      "id": 9,
      "job_type": {
        "id": 9,
        "name": "wv2-ortho",
        "title": "WorldView-2 Rigorous Orthorectification",
        "version": "2.0",
        "description": "Applies Orthorectification to WorldView-2 data",
        "is_system": true,
        "is_long_running": true,
        "is_active": false,
        "is_operational": false,
        "is_paused": true,
        "icon_code": "f219"
      },
      "event": {
        "id": 43,
        "type": "STRIKE_TRANSFER",
        "occurred": "2015-10-21T08:19:09Z"
      },
      "status": "RUNNING",
      "priority": 40,
      "num_exes": 15,
      "timeout": 1675,
      "max_tries": 1,
      "cpus_required": "55.2",
      "mem_required": "435.0",
      "disk_in_required": "3.2",
      "disk_out_required": "69.8",
      "created": "2016-02-01T09:30:53Z",
      "started": "2015-08-20T01:28:59Z",
      "last_status_change": "2015-06-07T20:55:00Z",
      "last_modified": "2015-06-04T21:23:04Z"
    },
    {
      "id": 10,
      "job_type": {
        "id": 10,
        "name": "export-shp",
        "title": "Export Shapefile",
        "version": "2.0",
        "description": "Creates shapefile (.shp) from raster data",
        "is_system": false,
        "is_long_running": false,
        "is_active": false,
        "is_operational": true,
        "is_paused": false,
        "icon_code": "f06e"
      },
      "event": {
        "id": 63,
        "type": "STRIKE_TRANSFER",
        "occurred": "2015-08-16T13:47:36Z"
      },
      "status": "COMPLETED",
      "priority": 100,
      "num_exes": 18,
      "timeout": 1072,
      "max_tries": 7,
      "cpus_required": "42.5",
      "mem_required": "429.8",
      "disk_in_required": "80.4",
      "disk_out_required": "26.6",
      "created": "2015-12-08T17:24:00Z",
      "started": "2015-08-28T04:19:40Z",
      "last_status_change": "2015-10-31T18:53:47Z",
      "last_modified": "2015-06-15T17:04:06Z"
    }
  ]
}