{
    "count": 10,
    "next": "http://localhost/api/jobs/?page=3",
    "previous": "http: //localhost/api/jobs/?page=1",
    "results": [
        {
            "id": 17,
            "job_type": {
                "id": 2,
                "name": "alfa",
                "version": "1.0",
                "title": "Alfa",
                "description": "alfa v1.0",
                "is_system": false,
                "is_long_running": false,
                "is_active": true,
                "is_operational": true,
                "is_paused": false,
                "icon_code": "f016"
            },
            "event": {
                "id": 3,
                "type": "STRIKE_TRANSFER",
                "rule": null,
                "occurred": "2015-08-28T17:57:24.261Z"
            },
            "error": null,
            "status": "FAILED",
            "priority": 10,
            "num_exes": 1,
            "timeout": 1800,
            "max_tries": 3,
            "cpus_required": 1.0,
            "mem_required": 64.0,
            "disk_in_required": 0.0,
            "disk_out_required": 64.0,
            "created": "2015-06-24T02:04:34.846Z",
            "last_status_change": "2015-06-24T02:09:34.846Z",
            "last_modified": "2015-06-24T02:09:35.846Z",
            "latest_job_exe": {
                "id": 35,
                "status": "COMPLETED",
                "command_arguments": "$input_file $job_output_dir",
                "timeout": 1800,
                "exit_code": 255,
                "created": "2015-06-24T02:51:04.791Z",
                "queued": "2015-06-24T02:50:56.791Z",
                "scheduled": "2015-06-24T02:51:07.791Z",
                "pre_started": "2015-06-24T02:51:15.791Z",
                "pre_completed": null,
                "job_started": null,
                "job_completed": null,
                "post_started": null,
                "post_completed": null,
                "ended": "2015-06-24T02:54:56.791Z",
                "last_modified": "2015-06-24T02:55:03.791Z",
                "job": {
                    "id": 4,
                },
                "node": {
                    "id": 2
                },
                "error": null
            }
        },
        {
            "id": 18,
            "job_type": {
                "id": 3,
                "name": "bravo",
                "version": "1.0",
                "title": "Bravo",
                "description": "bravo v1.0",
                "is_system": false,
                "is_long_running": false,
                "is_active": true,
                "is_operational": true,
                "is_paused": false,
                "icon_code": "f0e7"
            },
            "event": {
                "id": 3,
                "type": "STRIKE_TRANSFER",
                "rule": null,
                "occurred": "2015-08-28T17:57:24.261Z"
            },
            "error": null,
            "status": "COMPLETED",
            "priority": 10,
            "num_exes": 1,
            "timeout": 1800,
            "max_tries": 3,
            "cpus_required": 1.0,
            "mem_required": 64.0,
            "disk_in_required": 0.0,
            "disk_out_required": 64.0,
            "created": "2015-06-24T03:45:22.647Z",
            "last_status_change": "2015-06-24T03:48:22.647Z",
            "last_modified": "2015-06-24T04:00:29.647Z",
            "latest_job_exe": {
                "id": 35,
                "status": "COMPLETED",
                "command_arguments": "$input_file $job_output_dir",
                "timeout": 1800,
                "exit_code": 255,
                "created": "2015-06-24T02:51:04.791Z",
                "queued": "2015-06-24T02:50:56.791Z",
                "scheduled": "2015-06-24T02:51:07.791Z",
                "pre_started": "2015-06-24T02:51:15.791Z",
                "pre_completed": null,
                "job_started": null,
                "job_completed": null,
                "post_started": null,
                "post_completed": null,
                "ended": "2015-06-24T02:54:56.791Z",
                "last_modified": "2015-06-24T02:55:03.791Z",
                "job": {
                    "id": 4,
                },
                "node": {
                    "id": 2
                },
                "error": null
            }
        },
        {
            "id": 19,
            "job_type": {
                "id": 4,
                "name": "charlie",
                "version": "1.0",
                "title": "Charlie",
                "description": "charlie v1.0",
                "is_system": false,
                "is_long_running": false,
                "is_active": true,
                "is_operational": true,
                "is_paused": false,
                "icon_code": "f140"
            },
            "event": {
                "id": 3,
                "type": "STRIKE_TRANSFER",
                "rule": null,
                "occurred": "2015-08-28T17:57:24.261Z"
            },
            "error": null,
            "status": "COMPLETED",
            "priority": 10,
            "num_exes": 1,
            "timeout": 1800,
            "max_tries": 3,
            "cpus_required": 1.0,
            "mem_required": 64.0,
            "disk_in_required": 0.0,
            "disk_out_required": 64.0,
            "created": "2015-06-24T13:11:02.489Z",
            "last_status_change": "2015-06-24T13:12:02.489Z",
            "last_modified": "2015-06-24T13:22:06.489Z",
            "latest_job_exe": {
                "id": 35,
                "status": "COMPLETED",
                "command_arguments": "$input_file $job_output_dir",
                "timeout": 1800,
                "exit_code": 255,
                "created": "2015-06-24T02:51:04.791Z",
                "queued": "2015-06-24T02:50:56.791Z",
                "scheduled": "2015-06-24T02:51:07.791Z",
                "pre_started": "2015-06-24T02:51:15.791Z",
                "pre_completed": null,
                "job_started": null,
                "job_completed": null,
                "post_started": null,
                "post_completed": null,
                "ended": "2015-06-24T02:54:56.791Z",
                "last_modified": "2015-06-24T02:55:03.791Z",
                "job": {
                    "id": 4,
                },
                "node": {
                    "id": 2
                },
                "error": null
            }
        },
        {
            "id": 20,
            "job_type": {
                "id": 5,
                "name": "delta",
                "version": "1.0",
                "title": "Delta",
                "description": "delta v1.0",
                "is_system": false,
                "is_long_running": false,
                "is_active": true,
                "is_operational": true,
                "is_paused": false,
                "icon_code": "f017"
            },
            "event": {
                "id": 3,
                "type": "STRIKE_TRANSFER",
                "rule": null,
                "occurred": "2015-08-28T17:57:24.261Z"
            },
            "error": null,
            "status": "COMPLETED",
            "priority": 10,
            "num_exes": 1,
            "timeout": 1800,
            "max_tries": 3,
            "cpus_required": 1.0,
            "mem_required": 64.0,
            "disk_in_required": 0.0,
            "disk_out_required": 64.0,
            "created": "2015-06-24T13:46:34.513Z",
            "last_status_change": "2015-06-24T13:51:34.513Z",
            "last_modified": "2015-06-24T13:58:41.513Z",
            "latest_job_exe": {
                "id": 35,
                "status": "COMPLETED",
                "command_arguments": "$input_file $job_output_dir",
                "timeout": 1800,
                "exit_code": 255,
                "created": "2015-06-24T02:51:04.791Z",
                "queued": "2015-06-24T02:50:56.791Z",
                "scheduled": "2015-06-24T02:51:07.791Z",
                "pre_started": "2015-06-24T02:51:15.791Z",
                "pre_completed": null,
                "job_started": null,
                "job_completed": null,
                "post_started": null,
                "post_completed": null,
                "ended": "2015-06-24T02:54:56.791Z",
                "last_modified": "2015-06-24T02:55:03.791Z",
                "job": {
                    "id": 4,
                },
                "node": {
                    "id": 2
                },
                "error": null
            }
        },
        {
            "id": 21,
            "job_type": {
                "id": 6,
                "name": "echo",
                "version": "1.0",
                "title": "Echo",
                "description": "echo v1.0",
                "is_system": false,
                "is_long_running": false,
                "is_active": true,
                "is_operational": true,
                "is_paused": false,
                "icon_code": "f0c2"
            },
            "event": {
                "id": 3,
                "type": "STRIKE_TRANSFER",
                "rule": null,
                "occurred": "2015-08-28T17:57:24.261Z"
            },
            "error": null,
            "status": "COMPLETED",
            "priority": 10,
            "num_exes": 1,
            "timeout": 1800,
            "max_tries": 3,
            "cpus_required": 1.0,
            "mem_required": 64.0,
            "disk_in_required": 0.0,
            "disk_out_required": 64.0,
            "created": "2015-06-24T02:18:44.296Z",
            "last_status_change": "2015-06-24T02:25:44.296Z",
            "last_modified": "2015-06-24T02:29:45.296Z",
            "latest_job_exe": {
                "id": 35,
                "status": "COMPLETED",
                "command_arguments": "$input_file $job_output_dir",
                "timeout": 1800,
                "exit_code": 255,
                "created": "2015-06-24T02:51:04.791Z",
                "queued": "2015-06-24T02:50:56.791Z",
                "scheduled": "2015-06-24T02:51:07.791Z",
                "pre_started": "2015-06-24T02:51:15.791Z",
                "pre_completed": null,
                "job_started": null,
                "job_completed": null,
                "post_started": null,
                "post_completed": null,
                "ended": "2015-06-24T02:54:56.791Z",
                "last_modified": "2015-06-24T02:55:03.791Z",
                "job": {
                    "id": 4,
                },
                "node": {
                    "id": 2
                },
                "error": null
            }
        },
        {
            "id": 22,
            "job_type": {
                "id": 2,
                "name": "foxtrot",
                "version": "1.0",
                "title": "Foxtrot",
                "description": "foxtrot v1.0",
                "is_system": false,
                "is_long_running": false,
                "is_active": true,
                "is_operational": true,
                "is_paused": false,
                "icon_code": "f14e"
            },
            "status": "COMPLETED",
            "event": {
                "id": 3,
                "type": "STRIKE_TRANSFER",
                "rule": null,
                "occurred": "2015-08-28T17:57:24.261Z"
            },
            "error": null,
            "priority": 10,
            "num_exes": 1,
            "timeout": 1800,
            "max_tries": 3,
            "cpus_required": 1.0,
            "mem_required": 64.0,
            "disk_in_required": 0.0,
            "disk_out_required": 64.0,
            "created": "2015-06-24T13:10:47.226Z",
            "last_status_change": "2015-06-24T13:20:47.226Z",
            "last_modified": "2015-06-24T13:15:51.226Z",
            "latest_job_exe": {
                "id": 35,
                "status": "COMPLETED",
                "command_arguments": "$input_file $job_output_dir",
                "timeout": 1800,
                "exit_code": 255,
                "created": "2015-06-24T02:51:04.791Z",
                "queued": "2015-06-24T02:50:56.791Z",
                "scheduled": "2015-06-24T02:51:07.791Z",
                "pre_started": "2015-06-24T02:51:15.791Z",
                "pre_completed": null,
                "job_started": null,
                "job_completed": null,
                "post_started": null,
                "post_completed": null,
                "ended": "2015-06-24T02:54:56.791Z",
                "last_modified": "2015-06-24T02:55:03.791Z",
                "job": {
                    "id": 4,
                },
                "node": {
                    "id": 2
                },
                "error": null
            }
        },
        {
            "id": 23,
            "job_type": {
                "id": 2,
                "name": "hotel",
                "version": "1.0",
                "title": "Hotel",
                "description": "hotel v1.0",
                "is_system": false,
                "is_long_running": false,
                "is_active": true,
                "is_operational": true,
                "is_paused": false,
                "icon_code": "f016"
            },
            "status": "FAILED",
            "event": {
                "id": 3,
                "type": "STRIKE_TRANSFER",
                "rule": null,
                "occurred": "2015-08-28T17:57:24.261Z"
            },
            "error": null,
            "priority": 10,
            "num_exes": 1,
            "timeout": 1800,
            "max_tries": 3,
            "cpus_required": 1.0,
            "mem_required": 64.0,
            "disk_in_required": 0.0,
            "disk_out_required": 64.0,
            "created": "2015-06-24T13:50:22.766Z",
            "last_status_change": "2015-06-24T13:54:22.766Z",
            "last_modified": "2015-06-24T13:59:25.766Z",
            "latest_job_exe": {
                "id": 35,
                "status": "COMPLETED",
                "command_arguments": "$input_file $job_output_dir",
                "timeout": 1800,
                "exit_code": 255,
                "created": "2015-06-24T02:51:04.791Z",
                "queued": "2015-06-24T02:50:56.791Z",
                "scheduled": "2015-06-24T02:51:07.791Z",
                "pre_started": "2015-06-24T02:51:15.791Z",
                "pre_completed": null,
                "job_started": null,
                "job_completed": null,
                "post_started": null,
                "post_completed": null,
                "ended": "2015-06-24T02:54:56.791Z",
                "last_modified": "2015-06-24T02:55:03.791Z",
                "job": {
                    "id": 4,
                },
                "node": {
                    "id": 2
                },
                "error": null
            }
        },
        {
            "id": 24,
            "job_type": {
                "id": 2,
                "name": "india",
                "version": "1.0",
                "title": "India",
                "description": "india v1.0",
                "is_system": false,
                "is_long_running": false,
                "is_active": true,
                "is_operational": true,
                "is_paused": false,
                "icon_code": "f219"
            },
            "status": "FAILED",
            "event": {
                "id": 3,
                "type": "STRIKE_TRANSFER",
                "rule": null,
                "occurred": "2015-08-28T17:57:24.261Z"
            },
            "error": null,
            "priority": 10,
            "num_exes": 1,
            "timeout": 1800,
            "max_tries": 3,
            "cpus_required": 1.0,
            "mem_required": 64.0,
            "disk_in_required": 0.0,
            "disk_out_required": 64.0,
            "created": "2015-06-24T11:46:10.202Z",
            "last_status_change": "2015-06-24T11:56:10.202Z",
            "last_modified": "2015-06-24T11:59:19.202Z",
            "latest_job_exe": {
                "id": 35,
                "status": "COMPLETED",
                "command_arguments": "$input_file $job_output_dir",
                "timeout": 1800,
                "exit_code": 255,
                "created": "2015-06-24T02:51:04.791Z",
                "queued": "2015-06-24T02:50:56.791Z",
                "scheduled": "2015-06-24T02:51:07.791Z",
                "pre_started": "2015-06-24T02:51:15.791Z",
                "pre_completed": null,
                "job_started": null,
                "job_completed": null,
                "post_started": null,
                "post_completed": null,
                "ended": "2015-06-24T02:54:56.791Z",
                "last_modified": "2015-06-24T02:55:03.791Z",
                "job": {
                    "id": 4,
                },
                "node": {
                    "id": 2
                },
                "error": null
            }
        },
        {
            "id": 25,
            "job_type": {
                "id": 2,
                "name": "juliet",
                "version": "1.0",
                "title": "Juliet",
                "description": "juliet v1.0",
                "is_system": false,
                "is_long_running": false,
                "is_active": true,
                "is_operational": true,
                "is_paused": false,
                "icon_code": "f06e"
            },
            "status": "COMPLETED",
            "event": {
                "id": 3,
                "type": "STRIKE_TRANSFER",
                "rule": null,
                "occurred": "2015-08-28T17:57:24.261Z"
            },
            "error": null,
            "priority": 10,
            "num_exes": 1,
            "timeout": 1800,
            "max_tries": 3,
            "cpus_required": 1.0,
            "mem_required": 64.0,
            "disk_in_required": 0.0,
            "disk_out_required": 64.0,
            "created": "2015-06-24T01:58:22.774Z",
            "last_status_change": "2015-06-24T02:01:22.774Z",
            "last_modified": "2015-06-24T02:03:26.774Z"
        },
        {
            "id": 26,
            "job_type": {
                "id": 2,
                "name": "kilo",
                "version": "1.0",
                "title": "Kilo",
                "description": "kilo v1.0",
                "is_system": false,
                "is_long_running": false,
                "is_active": true,
                "is_operational": true,
                "is_paused": false,
                "icon_code": "f0fb"
            },
            "status": "COMPLETED",
            "event": {
                "id": 3,
                "type": "STRIKE_TRANSFER",
                "rule": null,
                "occurred": "2015-08-28T17:57:24.261Z"
            },
            "error": null,
            "priority": 10,
            "num_exes": 1,
            "timeout": 1800,
            "max_tries": 3,
            "cpus_required": 1.0,
            "mem_required": 64.0,
            "disk_in_required": 0.0,
            "disk_out_required": 64.0,
            "created": "2015-06-24T02:48:56.791Z",
            "last_status_change": "2015-06-24T02:56:56.791Z",
            "last_modified": "2015-06-24T02:55:03.791Z",
            "latest_job_exe": {
                "id": 35,
                "status": "COMPLETED",
                "command_arguments": "$input_file $job_output_dir",
                "timeout": 1800,
                "exit_code": 255,
                "created": "2015-06-24T02:51:04.791Z",
                "queued": "2015-06-24T02:50:56.791Z",
                "scheduled": "2015-06-24T02:51:07.791Z",
                "pre_started": "2015-06-24T02:51:15.791Z",
                "pre_completed": null,
                "job_started": null,
                "job_completed": null,
                "post_started": null,
                "post_completed": null,
                "ended": "2015-06-24T02:54:56.791Z",
                "last_modified": "2015-06-24T02:55:03.791Z",
                "job": {
                    "id": 4,
                },
                "node": {
                    "id": 2
                },
                "error": null
            }
        }
    ]
}